<?xml version="1.0" encoding="UTF-8" standalone="no"?>
<svg width="152px" height="154px" viewBox="0 0 152 154" version="1.1" xmlns="http://www.w3.org/2000/svg" xmlns:xlink="http://www.w3.org/1999/xlink" xmlns:sketch="http://www.bohemiancoding.com/sketch/ns">
    <!-- Generator: Sketch 3.3.1 (12002) - http://www.bohemiancoding.com/sketch -->
    <title>Emoji Copy 2</title>
    <desc>Created with Sketch.</desc>
    <defs>
        <linearGradient x1="50%" y1="0%" x2="67.6080676%" y2="100%" id="linearGradient-1">
            <stop stop-color="#F89D67" offset="0%"></stop>
            <stop stop-color="#FFCB5D" offset="100%"></stop>
        </linearGradient>
        <filter x="-50%" y="-50%" width="200%" height="200%" filterUnits="objectBoundingBox" id="filter-2">
            <feOffset dx="0" dy="0" in="SourceAlpha" result="shadowOffsetOuter1"></feOffset>
            <feGaussianBlur stdDeviation="0.5" in="shadowOffsetOuter1" result="shadowBlurOuter1"></feGaussianBlur>
            <feColorMatrix values="0 0 0 0 0   0 0 0 0 0   0 0 0 0 0  0 0 0 0.35 0" in="shadowBlurOuter1" type="matrix" result="shadowMatrixOuter1"></feColorMatrix>
            <feMerge>
                <feMergeNode in="shadowMatrixOuter1"></feMergeNode>
                <feMergeNode in="SourceGraphic"></feMergeNode>
            </feMerge>
        </filter>
        <filter x="-50%" y="-50%" width="200%" height="200%" filterUnits="objectBoundingBox" id="filter-3">
            <feOffset dx="0" dy="0" in="SourceAlpha" result="shadowOffsetOuter1"></feOffset>
            <feGaussianBlur stdDeviation="0.5" in="shadowOffsetOuter1" result="shadowBlurOuter1"></feGaussianBlur>
            <feColorMatrix values="0 0 0 0 0   0 0 0 0 0   0 0 0 0 0  0 0 0 0.35 0" in="shadowBlurOuter1" type="matrix" result="shadowMatrixOuter1"></feColorMatrix>
            <feMerge>
                <feMergeNode in="shadowMatrixOuter1"></feMergeNode>
                <feMergeNode in="SourceGraphic"></feMergeNode>
            </feMerge>
        </filter>
    </defs>
    <g id="Page-1" stroke="none" stroke-width="1" fill="none" fill-rule="evenodd" sketch:type="MSPage">
        <g id="Emoji-Copy-2" sketch:type="MSLayerGroup" transform="translate(2.000000, 2.000000)">
            <path d="M75.6818182,149.768217 C126.764364,149.768217 147.78387,117.547766 147.78387,73.8152186 C147.78387,30.0826707 130.951805,0.859807598 75.6818182,0.859807598 C20.4118312,0.859807598 0,30.0826695 0,73.8152174 C0,117.547765 24.5992726,149.768217 75.6818182,149.768217 Z" id="Oval-6" stroke="#A7702A" stroke-width="4" fill="url(#linearGradient-1)" sketch:type="MSShapeGroup"></path>
            <path d="M13.5,62.5 L35.5,46.5" id="Line" stroke="#A7702A" stroke-width="4" stroke-linecap="round" sketch:type="MSShapeGroup"></path>
            <path d="M115.5,62.5 L137.5,46.5" id="Line-Copy-2" stroke="#A7702A" stroke-width="4" stroke-linecap="round" sketch:type="MSShapeGroup" transform="translate(126.500000, 54.500000) scale(-1, 1) translate(-126.500000, -54.500000) "></path>
            <g id="Oval-7-+-Oval-8" transform="translate(16.818182, 51.913043)" sketch:type="MSShapeGroup">
                <ellipse id="Oval-7" fill="#FFFFFF" filter="url(#filter-2)" cx="18.5" cy="18.5326087" rx="18.5" ry="18.5326087"></ellipse>
                <ellipse id="Oval-8" fill="#2C3237" cx="18.5" cy="18.5326087" rx="6.72727273" ry="6.73913043"></ellipse>
            </g>
            <g id="Oval-7-+-Oval-8-Copy" transform="translate(97.545455, 51.913043)" sketch:type="MSShapeGroup">
                <ellipse id="Oval-7" fill="#FFFFFF" filter="url(#filter-3)" cx="18.5" cy="18.5326087" rx="18.5" ry="18.5326087"></ellipse>
                <ellipse id="Oval-8" fill="#2C3237" cx="18.5" cy="18.5326087" rx="6.72727273" ry="6.73913043"></ellipse>
            </g>
            <rect id="Rectangle-158" fill="#A7702A" sketch:type="MSShapeGroup" x="76" y="118" width="23" height="7" rx="2"></rect>
        </g>
    </g>
</svg>