<?xml version="1.0" encoding="UTF-8" standalone="no"?>
<svg width="153px" height="154px" viewBox="0 0 153 154" version="1.1" xmlns="http://www.w3.org/2000/svg" xmlns:xlink="http://www.w3.org/1999/xlink" xmlns:sketch="http://www.bohemiancoding.com/sketch/ns">
    <!-- Generator: Sketch 3.3.1 (12002) - http://www.bohemiancoding.com/sketch -->
    <title>Emoji</title>
    <desc>Created with Sketch.</desc>
    <defs>
        <linearGradient x1="50%" y1="0%" x2="67.6080676%" y2="100%" id="linearGradient-1">
            <stop stop-color="#F89D67" offset="0%"></stop>
            <stop stop-color="#FFCB5D" offset="100%"></stop>
        </linearGradient>
        <filter x="-50%" y="-50%" width="200%" height="200%" filterUnits="objectBoundingBox" id="filter-2">
            <feOffset dx="0" dy="0" in="SourceAlpha" result="shadowOffsetOuter1"></feOffset>
            <feGaussianBlur stdDeviation="0.5" in="shadowOffsetOuter1" result="shadowBlurOuter1"></feGaussianBlur>
            <feColorMatrix values="0 0 0 0 0   0 0 0 0 0   0 0 0 0 0  0 0 0 0.35 0" in="shadowBlurOuter1" type="matrix" result="shadowMatrixOuter1"></feColorMatrix>
            <feMerge>
                <feMergeNode in="shadowMatrixOuter1"></feMergeNode>
                <feMergeNode in="SourceGraphic"></feMergeNode>
            </feMerge>
        </filter>
        <filter x="-50%" y="-50%" width="200%" height="200%" filterUnits="objectBoundingBox" id="filter-3">
            <feOffset dx="0" dy="0" in="SourceAlpha" result="shadowOffsetOuter1"></feOffset>
            <feGaussianBlur stdDeviation="0.5" in="shadowOffsetOuter1" result="shadowBlurOuter1"></feGaussianBlur>
            <feColorMatrix values="0 0 0 0 0   0 0 0 0 0   0 0 0 0 0  0 0 0 0.35 0" in="shadowBlurOuter1" type="matrix" result="shadowMatrixOuter1"></feColorMatrix>
            <feMerge>
                <feMergeNode in="shadowMatrixOuter1"></feMergeNode>
                <feMergeNode in="SourceGraphic"></feMergeNode>
            </feMerge>
        </filter>
        <radialGradient cx="50%" cy="66.2089445%" fx="50%" fy="66.2089445%" r="83.7910555%" id="radialGradient-4">
            <stop stop-color="#F49F63" stop-opacity="0.621518342" offset="0%"></stop>
            <stop stop-color="#FDCF6F" stop-opacity="0" offset="100%"></stop>
        </radialGradient>
        <filter x="-50%" y="-50%" width="200%" height="200%" filterUnits="objectBoundingBox" id="filter-5">
            <feOffset dx="0" dy="2" in="SourceAlpha" result="shadowOffsetOuter1"></feOffset>
            <feGaussianBlur stdDeviation="2" in="shadowOffsetOuter1" result="shadowBlurOuter1"></feGaussianBlur>
            <feColorMatrix values="0 0 0 0 0.988235294   0 0 0 0 0.831372549   0 0 0 0 0.505882353  0 0 0 0.7 0" in="shadowBlurOuter1" type="matrix" result="shadowMatrixOuter1"></feColorMatrix>
            <feMerge>
                <feMergeNode in="shadowMatrixOuter1"></feMergeNode>
                <feMergeNode in="SourceGraphic"></feMergeNode>
            </feMerge>
        </filter>
        <filter x="-50%" y="-50%" width="200%" height="200%" filterUnits="objectBoundingBox" id="filter-6">
            <feOffset dx="0" dy="2" in="SourceAlpha" result="shadowOffsetOuter1"></feOffset>
            <feGaussianBlur stdDeviation="2" in="shadowOffsetOuter1" result="shadowBlurOuter1"></feGaussianBlur>
            <feColorMatrix values="0 0 0 0 0.988235294   0 0 0 0 0.831372549   0 0 0 0 0.505882353  0 0 0 0.7 0" in="shadowBlurOuter1" type="matrix" result="shadowMatrixOuter1"></feColorMatrix>
            <feMerge>
                <feMergeNode in="shadowMatrixOuter1"></feMergeNode>
                <feMergeNode in="SourceGraphic"></feMergeNode>
            </feMerge>
        </filter>
        <linearGradient x1="-3.93308372%" y1="58.3591461%" x2="95.3672372%" y2="50%" id="linearGradient-7">
            <stop stop-color="#FFFFFF" offset="0%"></stop>
            <stop stop-color="#D06060" offset="8.67096847%"></stop>
            <stop stop-color="#E8CB8C" offset="67.709662%"></stop>
            <stop stop-color="#D9D1D1" offset="100%"></stop>
        </linearGradient>
        <path id="path-8" d="M-1.26191913,23.6262142 C-2.91726824,22.1658522 -2.47610323,20.9504996 -0.264586058,20.9114369 L69.7936165,19.6739785 C73.0784299,19.6159579 75.7412973,22.2321118 75.7412973,25.5161891 L75.7412973,25.6216566 C75.7412973,28.9062411 73.0756167,31.5689229 69.7960545,31.5689229 L9.73958159,31.5689229 C8.63595966,31.5689229 7.07038454,30.9770383 6.2456909,30.2494871 L-1.26191913,23.6262142 Z"></path>
    </defs>
    <g id="Page-1" stroke="none" stroke-width="1" fill="none" fill-rule="evenodd" sketch:type="MSPage">
        <g id="Emoji" sketch:type="MSLayerGroup" transform="translate(2.000000, 2.000000)">
            <path d="M75.6818182,149.768217 C126.764364,149.768217 147.78387,117.547766 147.78387,73.8152186 C147.78387,30.0826707 130.951805,0.859807598 75.6818182,0.859807598 C20.4118312,0.859807598 0,30.0826695 0,73.8152174 C0,117.547765 24.5992726,149.768217 75.6818182,149.768217 Z" id="Oval-6" stroke="#A7702A" stroke-width="4" fill="url(#linearGradient-1)" sketch:type="MSShapeGroup"></path>
            <g id="Oval-7-+-Oval-8" transform="translate(17.818182, 51.913043)" filter="url(#filter-2)" fill="#FFFFFF" sketch:type="MSShapeGroup">
                <path d="M10.9818107,12.2472384 C5.40872365,18.4376467 0.132863702,25.0659526 0.677698454,26.2550417 C3.60083053,32.6347092 10.0339253,37.0652174 17.5,37.0652174 C27.7172679,37.0652174 36,28.7678859 36,18.5326087 C36,10.2220982 30.5395327,3.18919607 23.0166863,0.837980235 C22.1556403,0.568866027 16.426862,6.19904805 10.9818107,12.2472384 Z" id="Oval-7"></path>
            </g>
            <g id="Oval-7-+-Oval-8-Copy" transform="translate(97.545455, 52.913043)" filter="url(#filter-3)" fill="#FFFFFF" sketch:type="MSShapeGroup">
                <path d="M18.5,36.0652174 C25.7458933,36.0652174 32.0188355,31.8921754 35.0545896,25.814319 C36.2994827,23.3219297 14.2209117,-0.620976248 12.2759012,0.0749833302 C5.12056448,2.63529088 0,9.4849098 0,17.5326087 C0,27.7678859 8.28273213,36.0652174 18.5,36.0652174 Z" id="Oval-7"></path>
            </g>
            <path d="M45.0677185,49.9322811 L15.5,79.5" id="Line" stroke="#A7702A" stroke-width="4" stroke-linecap="round" sketch:type="MSShapeGroup"></path>
            <path d="M135.5,49.5 L105.296523,79.703476" id="Line-Copy" stroke="#A7702A" stroke-width="4" stroke-linecap="round" sketch:type="MSShapeGroup" transform="translate(120.500000, 64.500000) scale(-1, 1) translate(-120.500000, -64.500000) "></path>
            <path d="M43.196164,121.696968 C79.1333512,107.33324 77.9820161,126.343842 104.587706,116.552347" id="Path-5" stroke="#A7702A" stroke-width="3" sketch:type="MSShapeGroup"></path>
            <ellipse id="Oval-57" opacity="0.435634328" fill="url(#radialGradient-4)" filter="url(#filter-5)" sketch:type="MSShapeGroup" transform="translate(24.500000, 108.500000) rotate(-14.000000) translate(-24.500000, -108.500000) " cx="24.5" cy="108.5" rx="6.5" ry="11.5"></ellipse>
            <ellipse id="Oval-57-Copy" opacity="0.435634328" fill="url(#radialGradient-4)" filter="url(#filter-6)" sketch:type="MSShapeGroup" transform="translate(124.456431, 108.500000) scale(-1, 1) rotate(-14.000000) translate(-124.456431, -108.500000) " cx="124.456431" cy="108.5" rx="6.5" ry="11.5"></ellipse>
            <path id="Path-51" stroke="#979797" sketch:type="MSShapeGroup" d=""></path>
            <g id="Thermo" transform="translate(80.000000, 75.000000)">
                <mask id="mask-9" sketch:name="Mask" fill="white">
                    <use xlink:href="#path-8"></use>
                </mask>
                <use id="Mask" fill="url(#linearGradient-7)" sketch:type="MSShapeGroup" transform="translate(36.739030, 25.620977) rotate(-31.000000) translate(-36.739030, -25.620977) " xlink:href="#path-8"></use>
                <path d="M62.9748498,7.97993209 L62.9748498,6.89171883 C62.9748498,5.234502 64.3213669,3.89106232 65.9748498,3.89106232 L65.9748498,3.89106232 C67.631704,3.89106232 69.1486801,5.22255708 69.3540762,6.85828003 C69.3540762,6.85828003 69.4718609,7.63579964 69.4718609,7.97993189 C69.4718609,8.30135599 69.3712833,8.9122891 69.3712833,8.9122891 C69.1523391,10.5574201 67.6283326,11.8910623 65.9748498,11.8910623 L65.9748498,11.8910623 C64.3179955,11.8910623 62.9748498,10.547155 62.9748498,8.88516849 L62.9748498,7.97993209 Z" id="Rectangle-126" fill-opacity="0.610931839" fill="#FFFFFF" sketch:type="MSShapeGroup" mask="url(#mask-9)">
                    <g transform="translate(66.223355, 7.891062) rotate(-26.000000) translate(-66.223355, -7.891062) "></g>
                </path>
            </g>
        </g>
    </g>
</svg>