<?xml version="1.0" encoding="UTF-8" standalone="no"?>
<svg width="42px" height="43px" viewBox="0 0 42 43" version="1.1" xmlns="http://www.w3.org/2000/svg" xmlns:xlink="http://www.w3.org/1999/xlink" xmlns:sketch="http://www.bohemiancoding.com/sketch/ns">
    <!-- Generator: Sketch 3.3.1 (12002) - http://www.bohemiancoding.com/sketch -->
    <title>Anglais</title>
    <desc>Created with Sketch.</desc>
    <defs>
        <filter x="-50%" y="-50%" width="200%" height="200%" filterUnits="objectBoundingBox" id="filter-1">
            <feOffset dx="0" dy="1" in="SourceAlpha" result="shadowOffsetOuter1"></feOffset>
            <feGaussianBlur stdDeviation="1" in="shadowOffsetOuter1" result="shadowBlurOuter1"></feGaussianBlur>
            <feColorMatrix values="0 0 0 0 0   0 0 0 0 0   0 0 0 0 0  0 0 0 0.175 0" in="shadowBlurOuter1" type="matrix" result="shadowMatrixOuter1"></feColorMatrix>
            <feOffset dx="0" dy="1" in="SourceAlpha" result="shadowOffsetOuter2"></feOffset>
            <feGaussianBlur stdDeviation="1.5" in="shadowOffsetOuter2" result="shadowBlurOuter2"></feGaussianBlur>
            <feColorMatrix values="0 0 0 0 0   0 0 0 0 0   0 0 0 0 0  0 0 0 0.105 0" in="shadowBlurOuter2" type="matrix" result="shadowMatrixOuter2"></feColorMatrix>
            <feMerge>
                <feMergeNode in="shadowMatrixOuter1"></feMergeNode>
                <feMergeNode in="shadowMatrixOuter2"></feMergeNode>
                <feMergeNode in="SourceGraphic"></feMergeNode>
            </feMerge>
        </filter>
        <rect id="path-2" x="0.302135711" y="0.100291109" width="37.4153846" height="37.4153846" rx="40"></rect>
    </defs>
    <g id="Page-1" stroke="none" stroke-width="1" fill="none" fill-rule="evenodd" sketch:type="MSPage">
        <g id="Q1" sketch:type="MSArtboardGroup" transform="translate(-588.000000, -59.000000)">
            <g id="Group" sketch:type="MSLayerGroup" transform="translate(72.000000, 7.000000)">
                <g id="Anglais" transform="translate(518.000000, 54.000000)">
                    <mask id="mask-3" sketch:name="Mask" fill="white">
                        <use xlink:href="#path-2"></use>
                    </mask>
                    <use id="Mask" fill="#4758A9" filter="url(#filter-1)" sketch:type="MSShapeGroup" xlink:href="#path-2"></use>
                    <path d="M22.1060853,18.8079834 L39.5158161,1.39825266 L36.4195588,-1.69800466 L19.009828,15.7117261 L1.60009727,-1.69800466 L-1.49616005,1.39825266 L15.9135707,18.8079834 L-1.49616005,36.2177142 L1.60009727,39.3139715 L19.009828,21.9042407 L36.4195588,39.3139715 L39.5158161,36.2177142 L22.1060853,18.8079834 L22.1060853,18.8079834 Z" id="Rectangle-12-Copy-3" stroke="#FFFFFF" fill="#ED5565" sketch:type="MSShapeGroup" mask="url(#mask-3)"></path>
                    <path d="M23.1318619,14.6859495 L23.1318619,-5.60714044 L14.8877941,-5.60714044 L14.8877941,14.6859495 L-5.40529584,14.6859495 L-5.40529584,22.9300173 L14.8877941,22.9300173 L14.8877941,43.2231073 L23.1318619,43.2231073 L23.1318619,22.9300173 L43.4249519,22.9300173 L43.4249519,14.6859495 L23.1318619,14.6859495 Z" id="Rectangle-12-Copy" stroke="#FFFFFF" fill="#ED5565" sketch:type="MSShapeGroup" mask="url(#mask-3)"></path>
                </g>
            </g>
        </g>
    </g>
</svg>