<?xml version="1.0" encoding="utf-8"?>
<!-- Generator: Adobe Illustrator 19.2.1, SVG Export Plug-In . SVG Version: 6.00 Build 0)  -->
<svg version="1.1" id="Calque_1" xmlns="http://www.w3.org/2000/svg" xmlns:xlink="http://www.w3.org/1999/xlink" x="0px" y="0px"
	 viewBox="0 0 189 345" style="enable-background:new 0 0 189 345;" xml:space="preserve">
<style type="text/css">
	.st0{fill:#8197A5;}
	.st1{fill:#A1D0EA;}
	.st2{fill:#74B8DF;}
	.st3{fill:#75B9DF;}
	.st4{fill:#76B9E0;}
	.st5{fill:#75B9E0;}
	.st6{fill:#77BADF;}
	.st7{fill:#EAEDF0;}
	.st8{fill:#76B9DF;}
</style>
<g id="Calque_1_1_">
	<g>
		<path class="st0" d="M93.2,189.9c-0.2,1.1-0.2,2.2-0.2,3.5c0,0.8,0.3,1.6-0.3,2.4c-0.2,5.5-2.1,10.9-3.2,16.3
			c-1.4,6.8-2.4,13.6-3.3,20.4c-0.6,4.9-0.2,10.1-1.9,14.9c-0.8,2.2-1.7,4.1-2.2,6.3c-0.8,3.8,0,7.4,0.6,11.2
			c0.8,3.8,1.6,7.6,1.6,11.4c0,4.4-0.6,8.7-2.1,13c-1.7,5.2-2.4,10.8-3.3,16.3c-0.8,4.1,0.2,7.8,2.1,11.4c0.9,1.9,1.4,4,0.5,6
			c-0.3,0.9-0.3,1.9,0.2,2.7c0.9,1.7,0.6,3.2-0.8,4.4c-0.8,0.8-1.1,1.6-1.1,2.7c0,3-1.6,4.6-4.6,4.6c-0.8,0-1.6,0-2.2,0
			c-3,0-4.3-1.1-4.9-4.1c-0.2-0.6-0.2-1.3-0.8-1.6c-0.3-0.2-0.5-0.5-0.5-0.8l0,0c-0.9-0.2-1.9-0.9-1.4-1.9c0.5-0.9,0.3-2.7,2.1-2.7
			c1.3,0,1.6-0.6,1.6-1.7c0-2.4,0.2-4.7,0.5-7.1c0.3-2.2,0.5-4.6-0.2-6.8c-1.1-4.6-0.9-9.3-2.4-13.9c-2.1-7-3-14.1-4-21
			c-0.8-5.2,0-10.4,1.1-15.5c0.8-3.3,1.3-6.6,1.9-10c0.2-1.1-0.2-2.1-0.2-3c0-4.1,0.2-8.2,0.8-12.2c0.3-2.5,0-5.1-0.5-7.4
			c-1.1-5.5-2.2-10.9-3.2-16.5c-0.3-1.9-0.2-4-0.3-6c-0.6-7.4-1.4-14.9-1.3-22.5c0-2.5,0.6-5.1,1.1-7.6c-0.3-0.2-0.5-0.5-0.8-0.6
			c-1.9,6.3-1.1,12.7-0.9,19.1c0.2,4.6,1.3,9.2,1.3,13.6c0.2,4.6,1.1,9,2.1,13.6c0.5,2.5,1.3,4.9,1.4,7.6c0,0.6,0.9,1.9-0.8,2.1
			c-0.3,0-0.3,0.5-0.2,0.6c0.8,1.3-0.2,2.5-0.2,3.8c0.2,2.2,0.5,4.3,0.6,6.3c0.8,7-0.5,13.9-2.1,20.7c-1.3,5.7-1.4,11.6-0.5,17.2
			c1.3,6.6,2.1,13.4,4,20.1c1.1,4,0.9,8.2,1.9,12.2c0.5,2.1,0.3,4.3,0.2,6.2c-0.3,2.5-0.6,5.1-0.6,7.6c0,0.6-0.3,0.6-0.8,0.8
			c-2.8,0.5-3.8,3.6-2.1,5.7c0.8,0.9,1.7,1.7,2.1,3.2c0.6,2.7,2.1,3.6,4.9,3.6c0.9,0,1.9,0,2.8,0c3.2,0,5.2-1.9,5.2-5.1
			c0-0.8,0-1.6,0.8-2.2c1.9-1.7,2.2-3.5,0.9-5.9c-0.3-0.6-0.3-1.3,0-1.9c0.9-2.4,0.5-4.7-0.8-7c-1.7-3.2-2.5-6.3-1.9-10.1
			c0.9-6,1.7-11.9,3.6-17.7c1.3-3.6,1.4-7.4,1.7-11.1c0.3-6.3-1.9-12.2-2.2-18.5c-0.2-2.5,0.2-4.9,0.8-7.1c1.1-3.3,2.4-6.6,2.7-10.1
			c0.3-3.8,0.3-7.6,0.9-11.6c1.1-7.1,2.1-14.1,3.8-21c1.3-4.9,2.5-10,2.7-15c0-1.4,0.2-2.8,0.3-4.3
			C93.8,189.9,93.5,189.9,93.2,189.9z"/>
		<path class="st1" d="M118.6,227c0.3-2.8,0.5-5.7,0.8-8.5c-0.2,0.2-0.3,0.3-0.5,0.5C118.8,221.6,118.6,224.3,118.6,227z"/>
		<path class="st1" d="M92.4,190.1c-4,0.6-7.6,0-11.1-1.4c-4.1,2.5-6.3,6.5-7.8,11.2c-1.9,7-2.8,13.9-2.2,21
			c0.3,3.3-0.2,6.5,0.6,9.8c0.3,1.1-0.2,2.1-0.6,3.3c-1.1,2.5-1.4,5.2-0.8,7.9c0.2,0.8,0.5,1.6,0.2,2.2c-0.6,1.6,0.2,3,1.1,4.1
			c0.6,0.8,0.6,1.3,0,2.2c-4.1,6.3-6.8,13.1-6.8,20.9c0,4-0.3,7.9,0.8,11.7c0.3,1.3,0.8,2.5,1.4,3.6c0.6,1.1,1.3,2.5,2.8,1.1
			c0.3-0.2,0.6-0.2,0.8,0.2c0.3,0.5,0.2,0.8,0,1.3c-1.4,2.4-1.4,4.9-1.7,7.4c-0.6,4.4,0.3,8.5,1.4,12.7c0.9,3.3,1.3,6.6,1.7,10
			c0.3,2.4,0.5,4.9,0.3,7.3c0,1.4-0.5,1.9-1.9,2.2c-1.6,0.2-3.5,0.2-4.1,2.2l0,0c0.3,0.2,0.3,0.5,0.5,0.8c0.6,0.3,0.6,0.9,0.8,1.6
			c0.6,3,1.9,4.1,4.9,4.1c0.8,0,1.6,0,2.2,0c3-0.2,4.6-1.7,4.6-4.6c0-1.1,0.3-1.9,1.1-2.7c1.4-1.3,1.7-2.7,0.8-4.4
			c-0.5-0.9-0.6-1.7-0.2-2.7c0.9-2.1,0.5-4.1-0.5-6c-2.1-3.6-2.8-7.3-2.1-11.4c0.9-5.4,1.4-10.9,3.3-16.3c1.4-4.3,2.1-8.5,2.1-13
			c0-3.8-0.8-7.6-1.6-11.4c-0.8-3.6-1.4-7.4-0.6-11.2c0.5-2.2,1.6-4.3,2.2-6.3c1.6-4.9,1.3-10,1.9-14.9c0.9-6.8,1.7-13.6,3.3-20.4
			c1.3-5.4,3-10.6,3.2-16.3C92.4,193.9,92,192,92.4,190.1z M78.9,319.4c0.5,2.1,0.6,4.3,0.8,6.3c0,0.8-2.2,3-2.8,2.8
			c-1.1-0.3-0.3-1.3-0.6-1.9c0.3-2.5,0.8-4.9,1.4-7.3c0.2-0.3,0.2-0.8,0.6-0.8C78.9,318.6,78.8,319,78.9,319.4z M76.5,250.5
			c-0.9,0-1.3-0.6-0.9-1.3c2.4-3.3,1.1-7.1,1.7-10.8c0.2-0.6-0.3-1.4,0.5-1.6c0.8,0,0.8,0.8,0.9,1.4c0.9,2.7,1.6,5.4,1.9,8.5
			C80.7,248.2,78.1,250.5,76.5,250.5z"/>
		<path class="st2" d="M62.5,174.9c-0.6,2.5-1.1,4.9-1.1,7.6c-0.2,7.6,0.6,15,1.3,22.5c0.2,2.1,0,4.1,0.3,6
			c0.9,5.5,2.1,10.9,3.2,16.5c0.5,2.5,0.8,5.1,0.5,7.4c-0.6,4.1-0.8,8.1-0.8,12.2c0,0.9,0.5,1.9,0.2,3c-0.6,3.3-1.3,6.6-1.9,10
			c-1.1,5.2-1.9,10.4-1.1,15.5c1.1,7.1,1.9,14.2,4,21c1.4,4.6,1.3,9.3,2.4,13.9c0.5,2.4,0.5,4.7,0.2,6.8c-0.3,2.4-0.5,4.7-0.5,7.1
			c0,1.1-0.3,1.7-1.6,1.7c-1.7,0-1.6,1.7-2.1,2.7c-0.5,0.9,0.3,1.6,1.4,1.9c0.6-2.1,2.7-2.1,4.1-2.2c1.6-0.2,1.9-0.8,1.9-2.2
			c0-2.5,0-4.9-0.3-7.3c-0.5-3.3-0.8-6.6-1.7-10c-1.1-4.1-2.1-8.2-1.4-12.7c0.3-2.5,0.3-5.1,1.7-7.4c0.2-0.3,0.3-0.8,0-1.3
			c-0.2-0.3-0.6-0.3-0.8-0.2c-1.6,1.3-2.2-0.2-2.8-1.1c-0.6-1.1-1.1-2.4-1.4-3.6c-1.1-3.8-0.8-7.8-0.8-11.7c0-7.8,2.7-14.6,6.8-20.9
			c0.5-0.8,0.6-1.4,0-2.2c-0.9-1.1-1.7-2.5-1.1-4.1c0.3-0.8,0-1.4-0.2-2.2c-0.6-2.7-0.3-5.4,0.8-7.9c0.5-1.1,0.8-2.2,0.6-3.3
			c-0.8-3.2-0.3-6.5-0.6-9.8c-0.6-7.1,0.3-14.2,2.2-21c1.3-4.7,3.5-8.7,7.8-11.2C74.3,186,68.2,180,62.5,174.9z"/>
		<path class="st3" d="M93.2,189.9c-0.2,0-0.5,0.2-0.6,0.2c-0.3,1.9,0,3.8,0.2,5.7c0.6-0.8,0.3-1.6,0.3-2.4
			C92.8,192.3,93,191.2,93.2,189.9z"/>
		<path class="st2" d="M66.7,331.1c0.3,0.2,0.3,0.5,0.5,0.8C66.7,331.5,66.7,331.4,66.7,331.1z"/>
		<path class="st4" d="M80.8,246.9c0,1.3-2.7,3.6-4.3,3.5c-0.9,0-1.3-0.6-0.9-1.3c2.4-3.3,1.1-7.1,1.7-10.8c0.2-0.6-0.3-1.4,0.5-1.6
			c0.8,0,0.8,0.8,0.9,1.4C79.7,241,80.5,243.7,80.8,246.9z"/>
		<path class="st4" d="M76.2,326.6c0.3-2.5,0.8-4.9,1.4-7.3c0.2-0.3,0.2-0.8,0.6-0.8c0.5,0,0.5,0.5,0.6,0.8c0.5,2.1,0.6,4.3,0.8,6.3
			c0,0.8-2.2,3-2.8,2.8C75.7,328.2,76.4,327.3,76.2,326.6z"/>
	</g>
</g>
<g id="Calque_2">
	<g>
		<path class="st0" d="M128.3,178.9c0.6,4.7,0.3,9.5,0.2,14.4c-0.2,3.2-0.8,6.3-0.9,9.5c-0.3,7.1-1.4,14.1-3.2,21
			c-1.3,5.2-1.6,10.6-0.5,16c0.2,0.6,0.2,1.4,0.2,2.1c-0.3,6.6,0.5,13.3,2.1,19.8c1.6,7,1.1,13.9-0.2,20.9c-1.1,6.5-2.5,13-4.1,19.3
			c-0.5,3.2-0.8,6.2-1.3,9.3c-0.3,2.5-0.5,5.1,0.2,7.4c0.5,2.1,0.5,4,0.3,6c0,1.1,0.2,1.7,1.6,1.9c1.6,0.2,2.7,2.8,1.6,4.1
			c-1.4,1.4-2.5,2.8-2.7,4.7c-0.2,0.6-0.6,1.1-1.1,1.4c-1.7,1.1-6.8,0.8-8.4-0.5c-1.1-0.8-1.4-2.1-1.4-3.3c0-1.3-0.3-2.2-1.3-3
			c-1.3-1.3-0.6-3-0.5-4.4c0.2-0.9,0.2-1.7,0-2.8c-0.3-2.2-0.3-4.4,0.8-6.5c0.6-1.1,1.3-2.4,1.7-3.5c0.2-0.2,0.3-0.3,0.3-0.5l0,0
			c0-6.6-1.1-13.3-2.7-19.8c-1.4-5.5-3.3-10.9-3-16.8c0.2-3.6,0.8-7.4,1.6-11.1c0.8-4.1,1.6-8.2,0.3-12.3c-0.5-1.4-1.1-2.8-1.6-4.1
			c-0.5-0.9-0.6-2.1-0.6-3.2c-1.1-1.9-0.9-4-0.9-5.9c-0.2-4.6-0.9-9-1.3-13.4c-0.8-2.5-0.8-5.4-1.3-7.9c-1.3-5.5-2.5-11.1-3.8-16.8
			c-0.6-2.8-1.1-5.7-0.9-8.5c0-0.5,0-0.9,0-1.4c-0.3,0-0.5,0.2-0.8,0.2c0.2,0.9,0.2,1.9,0.2,3c0,1.4,0.2,3,0.5,4.4
			c1.3,8.2,4.1,16.3,5.1,24.7c0.6,5.2,1.7,10.3,1.7,15.5c0,4.6,1.3,8.9,3,13.1c0.8,1.7,1.3,3.6,1.1,5.5c-0.3,4.3-1.4,8.2-2.1,12.5
			c-0.9,6.2-0.8,12.3,1.1,18.5c0.9,3,1.9,6,2.2,9.3l0,0c1.1,1.9,0.3,4.1,1.1,6c0.2,0.5,0.3,1.1,0.3,1.6c0.8,3.6,0.5,7.3-1.6,10.6
			c-1.4,2.2-1.7,4.7-0.9,7.3c0.3,0.8,0.2,1.6,0,2.4c-0.5,1.7-0.9,3.8,0.6,5.1c0.9,0.8,1.3,1.6,1.3,2.8c0,2.4,1.1,3.8,3.3,4.6
			c1.7,0.6,3.5,0.3,5.2,0.3c2.5,0,3.8-1.1,4.4-3.5c0.2-1.1,0.6-1.9,1.4-2.5c1.7-1.6,1.9-2.4,0.9-4.4c-0.3-0.6-0.5-0.9,0.3-1.6
			c0.6-0.5,0.9-1.4-0.5-1.6c-1.3-0.2-2.1-1.3-2.5-2.2c-0.6-1.7-1.1-3.6-1.1-5.5c-0.2-5.4,0.9-10.6,1.7-15.8c0.3-2.5,1.6-5.1,2.1-7.6
			c0.5-2.7,1.1-5.5,1.4-8.2c0.5-3.3,1.3-6.6,1.6-10c0.6-6-0.6-12-1.7-17.9c-0.3-1.9-1.4-3.8-0.9-5.9l0,0c0-0.5,0-0.9,0-1.3
			c-0.8-5.1-0.3-10.3-0.9-15.5c-0.5-4.3,0.3-8.7,1.6-13c0.6-1.9,1.1-4,1.3-6c0.9-7.8,1.6-15.5,2.2-23.3c0.3-4.6,0.2-9.3-0.3-13.9
			C128.8,178.5,128.6,178.7,128.3,178.9z"/>
		<path class="st0" d="M108.8,297.5c0,0.2,0,0.5-0.2,0.6h-0.2C108.7,298,108.8,297.8,108.8,297.5L108.8,297.5z"/>
		<path class="st0" d="M125.1,251.3C125.3,251.3,125.3,251.3,125.1,251.3C125.3,251.3,125.3,251.3,125.1,251.3
			C125.3,251.2,125.1,251.3,125.1,251.3z"/>
		<path class="st1" d="M75.7,319.7c-0.2-5.2-0.6-10.4-1.1-15.7c-0.2,0-0.2,0.2-0.3,0.2c0.2,3.3,0.5,6.6,0.8,10
			C75.3,316,75.6,317.9,75.7,319.7z"/>
		<path class="st1" d="M119.3,283.9c2.7-0.6,3.8-2.5,4.6-4.7c2.8-8.1,2.7-16.1,0-24.2c-0.3-0.9-0.6-1.7-0.6-2.7c0-0.3,0-0.6-0.3-0.9
			c-2.8-2.8-0.6-6-0.2-8.9c0.5-3,0.2-5.5-1.3-8.2c-1.4-2.5-1.3-5.5-1.9-8.4c-0.8-3.5,0.5-7,1.4-10.3c1.3-4.7,2.5-9.5,2.8-14.6
			c0.2-2.5,0.5-5.2,0.3-7.8c-0.2-3.5-0.3-7-2.5-9.8c-0.2-0.2-0.3-0.5-0.5-0.6c-3,1.6-6.2,2.8-9.5,3.6c-1.4,0.9-3,1.6-4.9,1.6
			c-1.3,0.6-2.7,1.1-4.1,1.6c0,0.3-0.2,0.6-0.2,0.9c-0.9,4.4-1.1,9-0.6,13.3c0.8,6.3,0.2,12.8,1.4,19.1c0.2,0.9,0,1.9,0,2.8
			c0.5,4.4,1.3,9,1.3,13.4c0,1.9-0.2,4.1,0.9,5.9c0.6,2.4,2.5,3.2,4.6,3.8c0.9,0.2,0.8,0.8,0.2,1.4c-0.3,0.3-0.8,0.5-1.1,0.6
			c-0.3,0.3-0.3,0.8-0.2,1.3c0.2,0.6,0.6,0.2,0.9,0c1.3-0.6,1.7,0,1.6,1.3c-0.3,2.5-0.5,5.1-0.9,7.6c-1.3,6.2-1.7,12.3-2.1,18.5
			c-0.2,3.2,0.8,6,3.2,8.4c0.9,0.8,1.3,1.7,0.3,3c-0.8,1.1-0.9,2.5-0.9,3.8c0.2,3.8,0.6,7.6,0.9,11.4c0.2,2.1,0.6,4.3-0.6,6.2l0,0
			c-0.2,0.2-0.3,0.3-0.3,0.5c-0.6,1.1-1.1,2.4-1.7,3.5c-1.1,2.1-1.1,4.3-0.8,6.5c0.2,0.9,0.2,1.7,0,2.8c-0.2,1.4-0.8,3.2,0.5,4.4
			c0.9,0.8,1.3,1.7,1.3,3c0,1.3,0.3,2.5,1.4,3.3c1.6,1.3,6.6,1.6,8.4,0.5c0.5-0.3,1.1-0.8,1.1-1.4c0.3-2.1,1.4-3.5,2.7-4.7
			c1.1-1.3,0-4-1.6-4.1c-1.3-0.2-1.6-0.8-1.6-1.9c0-2.1,0.2-4-0.3-6c-0.6-2.5-0.5-5.1-0.2-7.4c0.5-3.2,0.8-6.2,1.3-9.3
			c-0.8,1.3-1.1,2.7-1.7,4.1c-0.2,0.5-0.2,1.1-0.8,0.9c-0.6-0.2-0.5-0.8-0.5-1.3c0.3-2.8,0.5-5.7,0.8-8.4c0.5-4.1,0.9-8.1-0.9-12
			C118.2,284.6,118.6,284.1,119.3,283.9z M112.3,245.3c0-0.6,0-1.4,0-2.1c0-0.5-0.2-1.1-0.8-1.1c-1.6,0.2-1.6-0.8-1.4-1.7
			c-0.2-1.6,0.6-2.8,0.9-4.3c0.2-0.5,0.5-0.9,1.1-0.8c0.8,0.2,0.6,0.6,0.6,1.1c0,2.7,0.6,5.1,1.7,7.4c0.3,0.9,0.3,1.6-0.6,2.1
			C112.9,246.4,112.3,246.4,112.3,245.3z M113.6,329.8c-0.5,0-0.6-0.5-0.5-0.8c0-0.5,0.3-0.6,0.8-0.6c0.5,0,0.6,0.2,0.6,0.6
			C114.4,329.5,114,329.8,113.6,329.8z M113.1,322.1c-1.3,0.2-0.6-0.9-0.8-1.6c-0.2-0.5,0-0.9,0-1.4c0-1.3-0.2-2.5,0.3-3.6
			c0.2-0.3,0-0.9,0.6-0.8c0.5,0,0.5,0.5,0.5,0.9c0.2,1.6,0.5,3.2,0.8,4.7C114.7,321.3,114.2,322.1,113.1,322.1z M118.8,319.8
			c0.2,0.3,0.3,0.8,0.3,1.1c0.2,0.9-0.2,1.9-1.3,1.9c-1.1,0-0.5-1.1-0.6-1.6c0-0.3,0-0.5,0-0.8v-0.2c0.2-0.9-0.3-2.7,0.8-2.7
			C119.3,317.5,118.5,319,118.8,319.8z M118.2,245.9c-1.6,0.3-2.4-0.5-1.9-1.9c0.6-2.7,1.1-5.4,1.1-8.2c0-0.8,0.3-1.3,0.8-1.9
			c0.3-0.5,0.8-0.6,1.3-0.5c0.6,0.2,0.5,0.6,0.5,1.1c0.3,2.5,0.6,5.1,0.8,6.5C120.7,244.5,119.9,245.6,118.2,245.9z"/>
		<path class="st1" d="M103.6,171.9c2.2-1.1,4.3-2.5,6.2-4.1c-4.4,1.9-8.9,3.8-13.3,6c0.2,0.3,0.3,0.5,0.5,0.8
			c1.6-0.5,3.3-1.3,4.7-1.9C102.3,172.4,103,172.1,103.6,171.9z"/>
		<path class="st3" d="M121,182.8c0.2,0.2,0.3,0.5,0.5,0.6c2.2,2.8,2.4,6.3,2.5,9.8c0.2,2.5-0.2,5.2-0.3,7.8
			c-0.3,5.1-1.6,9.8-2.8,14.6c-0.9,3.3-2.2,6.8-1.4,10.3c0.6,2.8,0.5,5.9,1.9,8.4c1.4,2.7,1.7,5.2,1.3,8.2c-0.5,2.8-2.7,6,0.2,8.9
			c0.2,0.2,0.3,0.6,0.3,0.9c0,0.9,0.3,1.9,0.6,2.7c2.7,8.1,2.8,16.1,0,24.2c-0.8,2.4-1.9,4.3-4.6,4.7c-0.6,0.2-0.9,0.6-0.6,1.3
			c2.1,3.8,1.4,7.9,0.9,12c-0.3,2.8-0.6,5.7-0.8,8.4c0,0.5-0.2,1.1,0.5,1.3c0.8,0.2,0.6-0.6,0.8-0.9c0.5-1.4,0.9-2.8,1.7-4.1
			c1.6-6.3,3-12.8,4.1-19.3c1.3-7.1,1.7-13.9,0.2-20.9c-1.4-6.5-2.2-13.1-2.1-19.8c0-0.6,0-1.4-0.2-2.1c-1.1-5.4-0.8-10.8,0.5-16
			c1.6-7,2.8-13.9,3.2-21c0.2-3.2,0.8-6.3,0.9-9.5c0.2-4.7,0.5-9.7-0.2-14.4C125.9,180.1,123.5,181.5,121,182.8z"/>
		<path class="st3" d="M108.8,186.9c-0.8,0.3-1.4,0.8-2.2,1.1c1.9,0,3.5-0.6,4.9-1.6C110.7,186.6,109.8,186.8,108.8,186.9z"/>
		<path class="st3" d="M101.7,203.9c-0.5-4.4-0.3-8.9,0.6-13.3c0-0.3,0.2-0.6,0.2-0.9c-1.7,0.6-3.6,1.1-5.5,1.6c0,0.5,0,0.9,0,1.4
			c-0.2,2.8,0.3,5.9,0.9,8.5c1.1,5.5,2.5,11.1,3.8,16.8c0.6,2.7,0.5,5.4,1.3,7.9c0-0.9,0.2-1.9,0-2.8
			C102,216.7,102.5,210.2,101.7,203.9z"/>
		<path class="st3" d="M105.5,245.2c0.6,2.4,2.5,3.2,4.6,3.8c0.9,0.2,0.8,0.8,0.2,1.4c-0.3,0.3-0.8,0.5-1.1,0.6
			c-0.3,0.3-0.3,0.8-0.2,1.3c0.2,0.6,0.6,0.2,0.9,0c1.3-0.6,1.7,0,1.6,1.3c-0.3,2.5-0.5,5.1-0.9,7.6c-1.3,6.2-1.7,12.3-2.1,18.5
			c-0.2,3.2,0.8,6,3.2,8.4c0.9,0.8,1.3,1.7,0.3,3c-0.8,1.1-0.9,2.5-0.9,3.8c0.2,3.8,0.6,7.6,0.9,11.4c0.2,2.1,0.6,4.3-0.6,6.2
			c0-6.6-1.1-13.3-2.7-19.8c-1.4-5.5-3.3-10.9-3-16.8c0.2-3.6,0.8-7.4,1.6-11.1c0.8-4.1,1.6-8.2,0.3-12.3c-0.5-1.4-1.1-2.8-1.6-4.1
			C105.7,247.4,105.3,246.3,105.5,245.2z"/>
		<path class="st3" d="M111.5,312.4c-0.2,0.2-0.3,0.3-0.3,0.5C111.3,312.6,111.3,312.6,111.5,312.4z"/>
		<path class="st5" d="M120.7,241c0,3.5-0.8,4.6-2.5,4.9c-1.6,0.3-2.4-0.5-1.9-1.9c0.6-2.7,1.1-5.4,1.1-8.2c0-0.8,0.3-1.3,0.8-1.9
			c0.3-0.5,0.8-0.6,1.3-0.5c0.6,0.2,0.5,0.6,0.5,1.1C120.2,237.1,120.5,239.5,120.7,241z"/>
		<path class="st4" d="M110.1,240.4c-0.2-1.6,0.6-2.8,0.9-4.3c0.2-0.5,0.5-0.9,1.1-0.8c0.8,0.2,0.6,0.6,0.6,1.1
			c0,2.7,0.6,5.1,1.7,7.4c0.3,0.9,0.3,1.6-0.6,2.1c-0.8,0.3-1.4,0.5-1.4-0.6c0-0.6,0-1.4,0-2.1c0-0.5-0.2-1.1-0.8-1.1
			C109.9,242.3,109.9,241.4,110.1,240.4z"/>
		<path class="st6" d="M112.3,319c0-1.3-0.2-2.5,0.3-3.6c0.2-0.3,0-0.9,0.6-0.8c0.5,0,0.5,0.5,0.5,0.9c0.2,1.6,0.5,3.2,0.8,4.7
			c0.2,1.1-0.3,1.9-1.4,2.1c-1.3,0.2-0.6-0.9-0.8-1.6C112.3,320,112.3,319.5,112.3,319z"/>
		<path class="st6" d="M117.2,320.5v-0.2c0.2-0.9-0.3-2.7,0.8-2.7c1.3-0.2,0.3,1.6,0.6,2.2c0.2,0.3,0.3,0.8,0.3,1.1
			c0.2,0.9-0.2,1.9-1.3,1.9c-1.1,0-0.5-1.1-0.6-1.6C117.2,320.9,117.2,320.8,117.2,320.5z"/>
		<path class="st6" d="M114.5,329c-0.2,0.5-0.3,0.8-0.9,0.8c-0.5,0-0.6-0.5-0.5-0.8c0-0.5,0.3-0.6,0.8-0.6
			C114.2,328.4,114.5,328.5,114.5,329z"/>
	</g>
</g>
<g id="Calque_3">
	<g>
		<path class="st0" d="M175.3,179.3c-1.1-2.4-2.8-4.4-3.8-7c-0.2-0.2-0.3-0.5-0.5-0.6c-2.1-1.4-3.8-3.2-6-4.1
			c-1.4-0.6-2.2-1.4-2.4-2.8c-0.6-3.6-1.6-7.1-2.7-10.6c-2.2-7-3.8-14.2-4.3-21.5c-0.3-6-2.4-11.4-5.7-16.5
			c-2.5-3.8-4.9-7.8-4.7-12.7l0,0c-1.1-4-2.4-7.9-3.3-12c-0.3-1.4-0.6-3.2-0.3-4.7c0.8-4.3,1.1-8.5,0.3-13
			c-1.3-8.7-8.4-12.8-14.4-15c-1.7-0.6-3.5-0.6-5.4-0.8c0,0.2,0.2,0.5,0.2,0.6c1.6,0.3,3.2,0.6,4.7,1.1c6.3,1.7,11.7,5.4,13.6,12.3
			c1.3,4.7,1.3,9.3,0.2,14.1c-0.6,2.7,0,5.4,0.9,7.9c1.4,4.3,2.4,8.5,3,13c0.3,2.2,1.3,4.3,2.4,6c2.8,4.6,5.7,9,6.8,14.4
			c0.5,2.4,0.8,4.9,0.9,7.4c0.2,5.2,1.4,10.3,2.7,15.2c1.3,4.4,2.7,8.9,3.5,13.4c0.3,2.1,1.4,3.8,3.6,4.7c1.9,0.8,3.6,2.1,5.1,3.6
			c1.1,1.1,1.6,2.8,2.2,4.3c0.2,1.4,1.4,2.2,2.1,3.3c0.2,0.3,0.5,0.6,0.2,0.9c-0.3,0.3-0.8,0-0.9-0.2c-0.6-0.9-1.9-1.4-2.2-2.5
			c-0.9-0.8-1.4-2.7-2.7-2.1c-1.4,0.6-0.3,2.5-0.2,3.5c0.5,2.4,1.6,4.6,2.5,6.8c0.9,1.7,1.1,3.8,2.2,5.5c0.2,0.3,0.6,1.1,0,1.4
			c-0.8,0.3-0.9-0.5-1.1-0.9c-1.6-2.7-3-5.5-4.4-8.2c-0.5-0.9-0.9-1.6-2.2-0.8c-0.2,2.4,1.3,4.3,1.4,6.5c0.5,2.4,1.1,4.9,1.6,7.3
			c0.2,0.5,0.5,1.1-0.3,1.3c-0.5,0.2-0.9-0.3-1.1-0.8c-0.8-2.1-1.6-4.3-2.2-6.3c-0.6-1.7-1.1-3.6-1.7-5.4c-0.3-0.9-0.8-1.3-1.6-1.3
			c-1.4,1.3-0.2,2.7-0.2,4.1c0,0.9,0.3,1.9,0.3,2.8l0,0c0.5,2.2,0.8,4.6,0.8,7c0,0.5-0.3,0.6-0.8,0.6c-0.5-0.5-0.6-0.9-0.8-1.6
			c-0.8-3.6-1.6-7.1-2.2-10.8c-0.2-0.8-0.3-1.6-1.1-2.1c-0.3,0-0.5,0-0.8,0c-0.6,0.8-0.8,1.9-0.8,2.8c0.2,2.2-0.3,4.4-0.6,6.6
			c0,0.3,0,0.9-0.6,0.9c-0.5,0-0.6-0.6-0.6-0.9c0.5-2.7-0.5-5.4,0.2-8.1c0.3-1.6-0.2-2.8-0.6-4.3c-1.9-5.5-2.2-11.2-2.7-16.9
			c-0.5-4.6-2.1-8.9-3.6-13.3c-1.7-4.4-4.7-8.2-6.3-12.7c-1.9-5.4-4.3-10.4-6-15.7c-0.2-0.6-0.3-1.3-0.2-1.9
			c0.6-4.7-1.3-9.2-2.2-13.6c-0.2-0.8-0.5-1.7-1.1-2.4c-1.4-1.9-2.5-4.1-3.2-6.5c-0.2-0.6-0.3-1.3-1.1-1.3c-0.3,0-0.5,0.2-0.6,0.2
			c0.2,0.5,0.3,1.1,0.3,1.7c0.2-0.3,0.3-0.6,0.5-1.1c0.3,0.9,0.6,1.6,0.9,2.2c0.8,2.5,2.8,4.4,3.5,6.8c1.1,4.4,2.7,8.9,2.4,13.6
			c-0.2,1.9,0.3,3.6,1.1,5.2c1.7,3.5,3.2,7.1,4.3,10.8c0.6,2.2,1.7,4.4,3,6.5c2.5,4.3,4.6,8.5,5.9,13.3c1.1,4.3,2.4,8.4,2.5,12.7
			c0.2,3.5,0.5,7,1.7,10.3c1.1,2.7,1.1,5.5,0.8,8.4c-0.2,1.9,0,3.8,0,5.5c0,0.9,0.3,1.6,1.3,1.7c1.1,0.3,1.3-0.6,1.6-1.4
			c0.2-0.5,0.2-0.8,0.2-1.3c0.3-2.5,0.6-5.1,0.8-7.6c0.6,0.3,0.5,0.8,0.6,1.3c0.8,3.6,1.6,7.3,2.4,10.8c0.2,0.5,0.3,1.1,0.5,1.6
			c0.3,0.6,0.8,1.1,1.6,0.8c0.6-0.2,1.1-0.6,0.9-1.4c0-1.1,0-2.2-0.2-3.5c-0.3-3.2-0.6-6.3-1.1-9.5c0.9,1.3,1.1,2.7,1.6,4
			c0.9,2.7,1.9,5.4,2.8,8.2c0.3,0.9,1.1,1.7,2.2,1.4c1.3-0.3,1.1-1.4,1.1-2.5c0-0.3-0.2-0.5-0.3-0.6c-0.9-3.6-1.9-7.4-2.7-11.1
			c-0.3-0.3-0.6-0.6-0.2-0.9c0.2-0.2,0.5,0.3,0.5,0.6c1.6,3,3,5.9,4.7,8.9c0.3,0.6,0.8,1.6,1.9,1.1c0.9-0.5,1.1-1.3,0.8-2.4
			c-0.8-2.4-2.1-4.4-2.4-7l0,0c-0.6-2.7-3.2-4.9-2.5-8.5c1.3,1.9,2.2,3.6,4,4.6c0.6,0.5,1.3,0.6,2.1,0.2
			C175.9,180.8,175.6,180,175.3,179.3z"/>
		<path class="st7" d="M166.3,184.9c-0.3-0.3-0.6-0.6-0.2-0.9c0.2-0.2,0.5,0.3,0.5,0.6C166.4,184.6,166.3,184.7,166.3,184.9z"/>
		<path class="st0" d="M171.5,185.2c0-0.2,0.2-0.3,0.2-0.5l0.2,0.2C171.8,185,171.8,185.2,171.5,185.2L171.5,185.2z"/>
		<path class="st0" d="M145.4,103.5c0-0.3,0.2-0.3,0.5-0.3l0.2,0.2C145.7,103.5,145.5,103.5,145.4,103.5L145.4,103.5z"/>
		<path class="st1" d="M172.3,176.5c-0.8-1.4-1.3-3-2.2-4.3c-1.4-1.4-3-2.8-5.1-3.6c-2.2-0.8-3.3-2.5-3.6-4.7
			c-0.8-4.6-2.2-9-3.5-13.4c-1.3-4.9-2.5-10-2.7-15.2c-0.2-2.5-0.5-5.1-0.9-7.4c-1.1-5.4-4-10-6.8-14.4c-1.3-1.9-2.1-3.8-2.4-6
			c-0.6-4.4-1.6-8.7-3-13c-0.9-2.5-1.6-5.2-0.9-7.9c1.1-4.7,1.1-9.5-0.2-14.1c-1.9-7.1-7.3-10.6-13.6-12.3c-1.6-0.5-3.2-0.8-4.7-1.1
			c2.5,12,3.6,24.5,2.7,36.7c0.2,0.2,0.2,0.3,0.3,0.3c1.3-2.4,1.9-5.1,2.8-7.6c0.2-0.5,0.2-0.9,0.8-0.9s0.6,0.3,0.8,0.8
			c0.9,4,3,7.8,3,12c0,1.1,0.8,1.9,1.1,2.8c1.6,4.7,2.5,9.7,6.2,13.4c0.8,0.9,0.8,2.2,0.6,3.3c-0.2,1.6,0.5,2.5,1.9,3.2
			c2.1,0.9,3.3,2.5,4,4.6c0.3,0.8,0,1.3-0.8,1.6c-2.8,0.6-3.2,1.6-2.7,5.1c0.9,6.2,3.5,11.9,5.7,17.6c1.4,3.8,2.8,7.6,4.1,11.6
			c0.3,1.3,0.8,2.4,2.1,3.3c1.1,0.8,0.8,4.3-0.3,5.1c-1.1,0.6-1.1-0.9-2.1-0.9c-0.3,2.2,0,4.4,1.4,6.3c0.8,1.1,0.3,2.2,0.5,3.3
			c0,0.9,0,1.6,1.3,2.1c1.4,0.5,0.5,1.7,0.6,2.7c0.3,0,0.5,0,0.8,0c0.2-0.9,0-2.4,1.3-2.5c1.1-0.2,0.8,1.3,1.4,1.9
			c0.6,0.8,0.5,1.7,0.3,2.7c-0.6,2.5-0.2,4,1.4,4.6c0-0.9-0.3-1.9-0.3-2.8c0-1.3-1.3-2.8,0.2-4.1c-0.2-0.5-0.5-0.9-0.6-1.4
			c-0.2-0.5,0-0.8,0.5-0.8c0.8-0.2,2.7,1.1,2.8,2.1c0.3,1.7,1.1,3.3,1.7,5.1c0.2,0.3,0.5,0.5,0.9,0.5c-0.3-2.2-1.6-4.1-1.4-6.5
			c-0.5-0.3-0.8-0.6-0.6-1.3c0.2-0.6,0.6-0.8,1.3-0.6c1.1,0.2,2.8-0.8,2.2,1.7c-0.3,1.6,1.6,3.3,2.8,3.2c-0.8-2.2-1.9-4.6-2.5-6.8
			c-0.3-1.1-1.4-2.8,0.2-3.5c1.3-0.6,1.9,1.3,2.7,2.1C171.2,177.1,171,176.3,172.3,176.5z M149.2,121.7c0,0.9,0,1.9,0,2.8
			c0,0.5,0.2,1.1-0.5,1.3c-0.6,0.2-1.1,0.2-1.6-0.3c-0.8-0.9-1.6-1.9-1.3-3.2c0.3-1.3,0.3-2.5,0-4c-0.2-0.8-0.8-2.2,0.6-2.2
			c1.1-0.2,2.4,0.5,2.5,2.1C149.2,119.4,149.2,120.5,149.2,121.7L149.2,121.7z"/>
		<path class="st3" d="M155.7,181.9c-1.3-0.3-1.1-1.1-1.3-2.1c-0.2-1.1,0.3-2.2-0.5-3.3c-1.4-1.9-1.6-4-1.4-6.3
			c0.8,0.2,0.9,1.7,2.1,0.9c1.1-0.6,1.4-4.3,0.3-5.1c-1.3-0.8-1.6-1.9-2.1-3.3c-1.1-4-2.5-7.8-4.1-11.6c-2.2-5.7-4.7-11.4-5.7-17.6
			c-0.5-3.5-0.2-4.4,2.7-5.1c0.9-0.2,1.1-0.6,0.8-1.6c-0.8-2.1-2.1-3.6-4-4.6c-1.3-0.6-2.1-1.6-1.9-3.2c0.2-1.1,0.3-2.4-0.6-3.3
			c-3.6-3.8-4.6-8.7-6.2-13.4c-0.3-0.9-1.3-1.7-1.1-2.8c0-4.3-2.1-8.1-3-12c-0.2-0.5-0.2-0.8-0.8-0.8s-0.6,0.5-0.8,0.9
			c-0.9,2.5-1.6,5.2-2.8,7.6c0.3,0.6,0.6,1.3,0.8,1.9c0.2-0.2,0.3-0.3,0.6-0.2c0.8,0,0.9,0.6,1.1,1.3c0.6,2.4,1.7,4.4,3.2,6.5
			c0.5,0.6,0.9,1.6,1.1,2.4c0.9,4.6,2.8,8.9,2.2,13.6c-0.2,0.6,0,1.3,0.2,1.9c1.7,5.4,4.3,10.4,6,15.7c1.6,4.4,4.6,8.2,6.3,12.7
			c1.7,4.3,3.3,8.5,3.6,13.3c0.5,5.7,0.8,11.4,2.7,16.9c0.5,1.3,0.9,2.7,0.6,4.3c-0.6,2.7,0.2,5.4-0.2,8.1c0,0.5,0.2,0.9,0.6,0.9
			c0.6,0,0.6-0.6,0.6-0.9c0.2-2.2,0.6-4.4,0.6-6.6c0-1.1,0.2-2.1,0.8-2.8C156.1,183.6,157.1,182.2,155.7,181.9z"/>
		<path class="st8" d="M161.3,184.4c-0.2-0.5-0.5-0.9-0.6-1.4c-0.2-0.5,0-0.8,0.5-0.8c0.8-0.2,2.7,1.1,2.8,2.1
			c0.3,1.7,1.1,3.3,1.7,5.1c0.2,0.3,0.5,0.5,0.9,0.5c0.5,2.4,1.1,4.9,1.6,7.3c0.2,0.5,0.5,1.1-0.3,1.3c-0.5,0.2-0.9-0.3-1.1-0.8
			c-0.8-2.1-1.6-4.3-2.2-6.3c-0.6-1.7-1.1-3.6-1.7-5.4C162.6,184.7,162.1,184.4,161.3,184.4z"/>
		<path class="st8" d="M157.1,184.4c0.2-0.9,0-2.4,1.3-2.5c1.1-0.2,0.8,1.3,1.4,1.9c0.6,0.8,0.5,1.7,0.3,2.7c-0.6,2.5-0.2,4,1.4,4.6
			l0,0c-0.3,1.7-1.1,3.3-0.5,5.2c0.3,0.8,0.3,1.6,0.5,2.4c-0.5-0.5-0.6-0.9-0.8-1.6c-0.8-3.6-1.6-7.1-2.2-10.8
			C158,185.7,157.9,184.9,157.1,184.4z"/>
		<path class="st6" d="M165.1,183.3c-0.5-0.3-0.8-0.6-0.6-1.3c0.2-0.6,0.6-0.8,1.3-0.6c1.1,0.2,2.8-0.8,2.2,1.7
			c-0.3,1.6,1.6,3.3,2.8,3.2c0.9,1.7,1.1,3.8,2.2,5.5c0.2,0.3,0.6,1.1,0,1.4c-0.8,0.3-0.9-0.5-1.1-0.9c-1.6-2.7-3-5.5-4.4-8.2
			C166.7,183.1,166.3,182.5,165.1,183.3z"/>
		<path class="st6" d="M171.2,177.9c0-0.8-0.2-1.6,1.1-1.6c0.2,1.4,1.4,2.2,2.1,3.3c0.2,0.3,0.5,0.6,0.2,0.9c-0.3,0.3-0.8,0-0.9-0.2
			C172.7,179.6,171.5,179.2,171.2,177.9z"/>
		<path class="st1" d="M161.3,198.8c-0.2-0.8-0.2-1.6-0.5-2.4c-0.6-1.9,0.2-3.5,0.5-5.2c0.5,2.2,0.8,4.6,0.8,7
			C162,198.6,161.7,198.8,161.3,198.8z"/>
		<path class="st5" d="M149.2,121.7c0,0.9,0,1.9,0,2.8c0,0.5,0.2,1.1-0.5,1.3c-0.6,0.2-1.1,0.2-1.6-0.3c-0.8-0.9-1.6-1.9-1.3-3.2
			c0.3-1.3,0.3-2.5,0-4c-0.2-0.8-0.8-2.2,0.6-2.2c1.1-0.2,2.4,0.5,2.5,2.1C149.2,119.4,149.2,120.5,149.2,121.7L149.2,121.7z"/>
	</g>
</g>
<g id="Calque_4">
	<g>
		<path class="st0" d="M56.4,117.3c0.6-2.7,1.3-5.5,1.9-8.2c0.6-3.2,3-5.5,4.1-8.4c0-0.9-0.2-1.9-0.2-2.8c-0.5,0.5-0.3,1.4-0.6,2.1
			c-0.6,1.1-0.8,2.5-1.6,3.5c-2.4,2.8-2.8,6.3-3.5,9.7c-0.6,2.8-1.1,5.7-0.8,8.5c0.2,1.3-0.3,2.7-0.9,3.8c-2.4,4.4-3.8,9-5.4,13.8
			c-0.9,2.7-2.8,5.1-4.1,7.6c-3.5,7.1-6.2,14.4-6.2,22.3c0,0.5-0.2,0.9-0.3,1.4c0,1.3-0.2,2.4-0.2,3.6c0,0.8-0.2,1.3-0.6,1.9
			c-0.5,2.1-0.9,4.3-1.6,6.3c-0.5,1.9-0.6,3.6-0.2,5.5c0.3,1.1,0,2.1-0.3,3.2c0.2,0.9-0.6,1.7,0.2,2.7c0.2,0.2,0,0.5-0.3,0.6
			c-0.5,0.2-0.6-0.2-0.6-0.5c-0.2-1.1-0.5-2.4-0.6-3.5c-0.2-1.7-0.3-3.6-0.5-5.4c-1.3-0.9-1.9-0.8-2.2,0.8c-0.8,3.2-1.3,6.3-1.9,9.5
			c-0.2,0.8-0.3,1.6-0.5,2.4c-0.2,0.5-0.3,0.9-0.8,0.8c-0.6-0.2-0.5-0.6-0.5-1.1c0-0.5,0-0.9,0-1.6c0.8-1.6-0.2-3.3,0.8-4.9l0,0
			c0.2-2.1,0.3-4,0.5-6c-1.6-1.1-2.1,0.2-2.4,1.3c-0.9,3.3-2.2,6.6-3.3,9.8c-0.2,0.5-0.3,0.8-0.5,1.3c-0.3,0.5-0.6,0.9-1.1,0.6
			c-0.8,0.2-0.8-0.5-0.5-0.8c0.3-0.6,0-1.4,0.5-1.9c0.6-2.1,0.5-4.1,1.6-6l0,0c0-2.1,1.6-3.8,1.1-6c-1.1-0.3-1.6,0.2-2.1,1.1
			c-1.4,2.7-2.8,5.4-4.4,8.1c-0.3,0.5-0.3,1.4-1.3,1.1c-0.5-0.3-0.3-1.1-0.2-1.7c0.6-1.7,1.4-3.5,2.2-5.2c0.2-0.2,0.2-0.3,0.3-0.3
			l0,0c0.9-2.8,1.9-5.5,2.8-8.4c0.2-0.5,0.9-1.1,0.2-1.6c-0.8-0.5-1.6-0.6-2.2,0.2c-0.5,0.6-1.1,1.3-1.6,1.9
			c-0.5,0.5-0.8,1.1-1.6,1.4c-0.5-1.3,0.3-2.4,0.6-3.2c1.1-2.7,2.7-5.5,5.7-6.8c3.3-1.4,5.1-3.6,5.4-7.4c0.3-3,1.4-5.9,2.4-8.7
			c1.4-4.4,2.4-9.2,3.3-13.8c0-0.5-0.2-1.1,0.3-1.6c0-0.2,0-0.2,0-0.3c-0.5-8.9,2.2-16.5,7.1-23.6c2.1-3,3-6.3,3.5-9.8
			c0.3-3.2,1.1-6.2,2.2-9.2c1.6-4,1.1-7.9,0.6-11.9c-0.8-5.7,0-11.2,3.2-16.3c0.2-0.3,0.5-0.5,0.8-0.8c0.2-0.3,0.3-0.6,0.8-0.8
			c1.6-1.9,3.8-3.2,6-4.3c0-0.3,0-0.6,0-0.9c-1.4,0.6-2.7,1.6-4.1,2.4c-1.7,1.1-3.2,2.5-4.1,4.1c-3.3,5.2-3.8,11.1-3.2,16.9
			c0.5,4,0.8,7.8-0.6,11.6c-0.9,2.4-1.6,4.7-1.9,7.3c-0.6,4.7-2.1,9.3-4.9,13.3c-4,5.5-5.9,11.7-6.2,18.5c-0.3,6.2-1.6,12-3.3,18
			c-0.9,3.3-2.2,6.5-2.5,9.8c-0.3,3.3-1.7,5.2-4.6,6.3c-2.7,0.9-4.4,2.8-5.2,5.5c-0.3,0.9-1.6,0.8-1.6,2.1c0,1.9-1.3,3.2-2.7,4.1
			v0.8c4.3,2.1,4.9-2.2,7.3-4.3c0,3.6-1.6,6.6-3,9.5l-0.2,0.2c0,2.1-1.4,3.6-1.9,5.5c-0.3,1.1-0.3,1.9,0.8,2.4
			c1.1,0.5,1.6-0.5,1.9-1.3c1.1-1.9,2.1-3.8,3.2-5.7c0.6-1.3,1.3-2.5,1.9-3.8c0,1.4,0,2.7-0.9,3.6c-0.3,1.6-0.8,3-0.9,4.6
			c-0.2,1.7-1.1,3.3-1.3,5.1c-0.2,0.9,0.2,1.7,0.9,2.1c0.8,0.3,1.4-0.3,1.9-0.9c0.3-0.5,0.5-0.9,0.6-1.4c0.9-2.8,2.2-5.5,2.8-8.5
			c0.2-0.8,0.3-1.7,1.3-2.5c-0.2,0.9-0.2,1.6-0.2,2.1c-0.5,3.3-0.8,6.6-0.9,10c0,0.9-0.2,1.9,1.1,2.1c1.3,0.2,1.6-0.9,1.9-1.7
			c0.6-2.5,1.1-5.1,1.7-7.4c0.5-1.7,0.3-3.6,1.4-5.5c0.2,3.2,0.8,5.9,0.8,8.7c0,0.8,0.2,2.1,1.6,1.9c1.1-0.2,1.6-0.9,1.6-2.1
			c0-0.6-0.2-1.4,0-2.1c0.3-3.3-0.8-6.8,0.5-10.1c1.4-4.4,2.7-9,2.4-13.8c0-0.3,0-0.6,0.3-0.8l0,0c0-0.3,0-0.5,0-0.8
			c0.2-6,2.4-11.4,4.7-16.8c2.2-4.7,5.5-9,6.6-14.2c1.3-4.9,4.6-9,5.1-14.2C56.8,119.7,56.1,118.6,56.4,117.3z"/>
		<path class="st1" d="M97.6,23.5c0-1.9,0-3.8,0.2-5.7c-0.3,0.5-0.6,0.9-0.9,1.6C97.1,20.8,97.3,22.1,97.6,23.5z"/>
		<path class="st1" d="M56.3,103.5c2.2-3.3,4.7-6.6,6-10.6c0-2.4-0.2-4.9-0.2-7.4C62,77.6,59.9,70,59.3,62.2c0-0.3,0-0.8-0.2-1.1
			c-2.2,1.1-4.3,2.4-6,4.3c0,0.5-0.2,0.8-0.8,0.8c0,0.6-0.2,1.3-0.5,2.1c-2.4,6.2-2.1,12.2,0.6,18.2c0.9,2.2,1.1,3.8-0.2,6
			c-2.2,3.8-3.3,8.2-3.5,12.7c-0.2,4.1-1.1,7.6-4,10.6c-5.7,6-9.2,13.1-10,21.5c0,0.2-0.2,0.3-0.3,0.5c0,0.2,0,0.2,0,0.3
			c0,0.5,0.2,1.1-0.3,1.6c-0.9,4.6-1.7,9.2-3.3,13.8c-0.9,2.8-2.1,5.9-2.4,8.7c-0.3,3.8-2.1,5.9-5.4,7.4c-2.8,1.3-4.4,4-5.7,6.8
			c-0.3,0.8-1.1,1.9-0.6,3.2c0.8-0.3,1.1-0.8,1.6-1.4c0.5-0.6,0.9-1.3,1.6-1.9c0.6-0.8,1.6-0.6,2.2-0.2c0.8,0.5,0.2,1.1-0.2,1.6
			c-0.9,2.8-1.9,5.5-2.8,8.4c0.8-0.3,0.8-0.9,1.3-1.6c0.2-0.2,3-3.5,3-3.5c0.3-0.2,0.8-0.3,1.1-0.2c0.5,0.2,0.3,0.6,0.3,0.9
			c-0.2,0.5-0.3,0.8-0.3,1.3c0.5,2.2-1.1,4-1.1,6c2.4-0.6,1.6-2.8,2.1-4.4c0.3-0.9,0.3-1.3,1.3-1.3c0.3,0,0.8,0,0.9-0.5
			c0.3-0.5,0.8-0.9,1.4-0.6c0.8,0.3,0.8,1.3,0.8,1.9c0.2,0.8-0.3,0.9-0.9,0.9c-0.2,2.1-0.3,4-0.5,6c1.7-0.9,2.5-2.7,2.1-4.9
			c-0.2-0.9-0.3-1.7,0.6-2.2c0.2-0.2,0.3-0.3,0.5-0.6c0.2-0.6-0.6-1.6,0.5-1.6c0.9,0,1.6,0.9,1.9,1.9c0.2,0.5,0.2,0.9-0.3,1.4
			c0.2,1.7,0.3,3.6,0.5,5.4c0.2,1.1,0.5,2.4,0.6,3.5c0,0.3,0.2,0.6,0.6,0.5c0.2-0.2,0.5-0.3,0.3-0.6c-0.8-0.9,0-1.7-0.2-2.7
			c-1.3-1.4-0.6-3.2-0.6-4.7c-0.2-2.8-0.8-5.9,0.6-8.7c0.5-0.9,0.8-1.6,2.1-1.6c0.5-0.5,0.6-1.1,0.6-1.9c0-1.3,0-2.4,0.2-3.6
			c-0.5,0.2-1.1,0.8-1.4,0s-1.4-1.6-0.8-2.2c3.2-3,1.9-7.3,3.3-10.9c2.1-5.5,3.3-11.2,6.5-16.3c1.6-2.5,2.5-5.4,3.3-8.2
			c0.8-2.7-0.3-4.1-3-4.3c-0.5,0-1.3,0.2-1.4-0.6c-0.2-0.8,0.3-1.1,0.9-1.4c1.7-0.9,3-2.4,3.2-4.4c0.2-0.9,0.8-1.3,1.3-1.7
			c1.6-1.4,2.5-3.2,3-5.4c0.6-3.3,1.7-6.5,1.9-10C55.3,104.6,55.8,104.2,56.3,103.5z"/>
		<path class="st2" d="M70.5,204.5c-0.2,0-0.3,0-0.5,0c-0.2,2.7-0.3,5.2-0.3,7.9C70,209.7,70.4,207,70.5,204.5z"/>
		<path class="st2" d="M55.6,121.6c-0.3-3,0.2-5.7,0.8-8.5c0.8-3.3,1.3-6.8,3.5-9.7c0.8-0.9,1.1-2.2,1.6-3.5
			c0.3-0.6,0.3-1.6,0.6-2.1c0-1.6-0.2-3.3-0.2-4.9c-1.3,4-3.6,7.1-6,10.6c-0.5,0.6-0.9,1.1-0.9,1.9c0,3.5-1.3,6.6-1.9,10
			c-0.5,2.2-1.4,3.8-3,5.4c-0.5,0.5-1.3,0.9-1.3,1.7c-0.2,2.1-1.3,3.5-3.2,4.4c-0.6,0.3-1.1,0.6-0.9,1.4c0.2,0.8,0.8,0.6,1.4,0.6
			c2.7,0.2,3.8,1.4,3,4.3s-1.7,5.7-3.3,8.2c-3.2,5.1-4.4,10.8-6.5,16.3c-1.3,3.6,0,7.9-3.3,10.9c-0.6,0.6,0.5,1.4,0.8,2.2
			c0.3,0.8,0.9,0.2,1.4,0c0.2-0.5,0.3-0.9,0.3-1.4c0.2-8.1,2.7-15.3,6.2-22.3c1.3-2.5,3.2-4.9,4.1-7.6c1.7-4.6,3.2-9.3,5.4-13.8
			C55.3,124.3,55.8,123,55.6,121.6z"/>
		<path class="st3" d="M52.3,66.4c0,0.6-0.2,1.4-0.5,2.1c-2.4,6.2-2.1,12.2,0.6,18.2c0.9,2.2,1.1,3.8-0.2,6
			c-2.2,3.8-3.3,8.2-3.5,12.7c-0.2,4.1-1.1,7.6-4,10.6c-5.7,6-9.2,13.1-10,21.5c0,0.2-0.2,0.3-0.3,0.5c-0.2-8.9,2.5-16.5,7.4-23.6
			c2.1-3,3-6.3,3.5-9.8c0.3-3.2,1.1-6.2,2.2-9.2c1.6-4,1.1-7.9,0.6-11.9c-0.8-5.7,0-11.2,3.2-16.3C51.7,66.8,52,66.5,52.3,66.4z"/>
		<path class="st8" d="M23.8,189c2.4-0.6,1.6-2.8,2.1-4.4c0.3-0.9,0.3-1.3,1.3-1.3c0.3,0,0.8,0,0.9-0.5c0.3-0.5,0.8-0.9,1.4-0.6
			c0.8,0.3,0.8,1.3,0.8,1.9c0.2,0.8-0.3,0.9-0.9,0.9c-1.6-1.1-2.1,0.2-2.4,1.3c-0.9,3.3-2.2,6.6-3.3,9.8c-0.2,0.5-0.3,0.8-0.5,1.3
			c-0.3,0.5-0.6,0.9-1.1,0.6c-0.6,0-0.6-0.6-0.3-0.9c0.3-0.6,0-1.4,0.5-1.9C24.2,193.4,23.8,191.2,23.8,189L23.8,189z"/>
		<path class="st6" d="M19.6,186c0.8-0.3,0.8-0.9,1.3-1.6c0.2-0.2,3-3.5,3-3.5c0.3-0.2,0.8-0.3,1.1-0.2c0.5,0.2,0.3,0.6,0.3,0.9
			c-0.2,0.5-0.3,0.8-0.3,1.3c-1.1-0.3-1.6,0.2-2.1,1.1c-1.4,2.7-2.8,5.4-4.4,8.1c-0.3,0.5-0.3,1.4-1.3,1.1c-0.5-0.3-0.3-1.1-0.2-1.7
			c0.6-1.7,1.4-3.5,2.2-5.2C19.4,186.1,19.6,186,19.6,186L19.6,186z"/>
		<path class="st6" d="M28.8,191.2c1.7-0.9,2.5-2.7,2.1-4.9c-0.2-0.9-0.3-1.7,0.6-2.2c0.2-0.2,0.3-0.3,0.5-0.6
			c0.2-0.6-0.6-1.6,0.5-1.6c0.9,0,1.6,0.9,1.9,1.9c0.2,0.5,0.2,0.9-0.3,1.4c-1.3-0.9-1.9-0.8-2.2,0.8c-0.8,3.2-1.3,6.3-1.9,9.5
			c-0.2,0.8-0.3,1.6-0.5,2.4c-0.2,0.5-0.3,0.9-0.8,0.8c-0.6-0.2-0.5-0.6-0.5-1.1c0-0.5,0-0.9,0-1.6c0.6,0,0.8-0.5,1.1-0.9
			C30,193.7,28.9,192.5,28.8,191.2L28.8,191.2z"/>
		<path class="st8" d="M35.9,191.2c-1.3-1.4-0.6-3.2-0.6-4.7c-0.2-2.8-0.8-5.9,0.6-8.7c0.5-0.9,0.8-1.6,2.1-1.6
			c-0.5,2.1-0.9,4.3-1.6,6.3c-0.5,1.9-0.6,3.6-0.2,5.5C36.5,189.1,36.3,190.2,35.9,191.2z"/>
		<path class="st1" d="M23.8,189c0,2.2,0.5,4.4-1.6,6C22.9,193.1,22.7,190.9,23.8,189z"/>
		<path class="st1" d="M28.8,191.2c0.2,1.3,1.3,2.5,0.5,4c-0.3,0.5-0.5,0.9-1.1,0.9C28.8,194.5,28,192.8,28.8,191.2z"/>
		<path class="st3" d="M34.8,138c0,0.5,0.2,1.1-0.3,1.6C34.4,139,34.3,138.5,34.8,138z"/>
		<path class="st3" d="M53,65.6c0,0.5-0.2,0.8-0.8,0.8C52.5,65.9,52.6,65.7,53,65.6z"/>
		<path class="st1" d="M19.6,186c-0.2,0.2-0.2,0.3-0.3,0.3C19.4,186.1,19.6,186,19.6,186z"/>
	</g>
</g>
<g id="Calque_5">
	<g>
		<path class="st0" d="M126.7,164.9c-0.3-3.8-0.8-7.4-1.4-11.2c-0.9-5.2-2.5-10.4-2.4-16c0-2.8-0.5-5.5-1.1-8.2
			c-1.3-5.4-0.9-10.6,0.6-15.8c0.8-2.8,1.6-5.7,2.5-8.4c0-0.2,0-0.2,0.2-0.3c-0.3-0.3-0.5-0.6-0.6-1.1c-1.1,4-2.4,7.8-3.3,11.9
			c-1.1,4.7-1.3,9.7,0.2,14.6c0.6,2.2,1.1,4.6,1.1,7.1c-0.3,5.7,1.4,11.2,2.4,16.8c0.6,3.3,1.1,6.8,1.3,10.3c0.2,2.4,0.6,4.6,1.1,7
			c0.3-0.5,0.5-0.8,0.8-1.3c0-0.3-0.2-0.6-0.2-0.9C127.3,167.8,126.9,166.5,126.7,164.9z"/>
		<path class="st0" d="M95.8,185.2c-0.2-0.5-0.3-1.1-0.9-0.9c-0.6,0-0.6,0.6-0.8,1.1c-0.3,0.9-0.5,2.1-0.6,3.2
			c0.3,0.3,0.5,0.5,0.6,0.8c0.2-1.3,0.5-2.5,0.9-3.8c0.5,1.4,0.9,2.8,1.1,4.4c0.2,0,0.2,0,0.3-0.2c0.2,0,0.3-0.2,0.5-0.2
			C96.6,188,96.3,186.6,95.8,185.2z"/>
		<path class="st0" d="M119.1,57c0,0-0.2,0-0.2-0.2c-3.3-1.9-7.3-2.7-10.4-5.1c-0.3-0.2-0.5-0.5-0.8-0.6c-0.5,0-0.8,0-1.3,0.2
			c2.5,2.2,5.5,3.6,8.5,5.1c1.3,0.6,2.5,0.9,4,1.4C119.1,57.7,119.1,57.3,119.1,57z"/>
		<path class="st0" d="M82.5,51c-0.8,0.6-1.6,1.4-2.8,2.1c-2.7,1.6-5.5,2.5-8.4,3.6c-1.1,0.5-2.1,1.6-3.5,1.4
			c-2.7-0.3-5.1,0.3-7.4,1.3c0.2,0.2,0.2,0.5,0.3,0.6c1.9-1.1,4.4-1.1,6.6-1.1c1.1,0,1.9-0.2,2.8-0.8c3.6-2.1,7.9-3,11.4-5.7
			c0.6-0.5,1.3-1.1,1.9-1.6C83.2,51.2,82.9,51,82.5,51z"/>
		<path class="st1" d="M121.9,147.8c0-1.3-0.6-2.5-1.4-3.6c-1.4-1.4-1.7-3.2-1.3-4.9c0.6-2.7-0.3-4.7-2.1-6.8
			c-1.3-1.4-2.4-2.7-3.6-4.1c-0.8-0.9-1.1-1.9-0.5-3.2c4.1-6.8,7.4-13.9,9.5-21.5c0.3-0.9,0.6-1.7,0.8-2.7c-0.2-0.6-0.2-1.4,0-2.1
			c-0.2-1.1,0-2.4,0.3-3.5c-1.3-5.7-1.9-11.4-2.5-16.8c-0.6-4.3-0.6-8.5,0.2-12.7c-0.5-1.1-0.6-2.4-0.6-3.5
			c-1.1-1.4-1.6-3.2-1.6-4.9c-1.3-0.3-2.7-0.8-4-1.4c-3-1.4-6.2-2.8-8.5-5.1c-1.7,0-3.5,0-5.4-0.2c-1.7-0.2-3.5-0.5-5.2-0.8
			c-3,0.5-6.2,0.8-9,0.8c-0.2,0.2-0.2,0.3-0.3,0.5c-1.3,1.7-3.2,2.8-4.9,3.8c-3.6,2.1-7.6,3.3-11.7,4c-0.8,0.2-1.7,0.3-2.5-0.3
			c-2.2,0-4.6,0-6.6,1.1c0.6,1.4,0.8,3,0.6,4.6c0,0.5,0,0.9,0,1.3c1.9,2.1,2.4,5.2,1.7,7.9c0.3,1.1,0.5,2.2,0.3,3.5
			c0.8,1.6,0.9,3.6,0.6,5.4c0.3,1.6,0.2,3.5-0.3,5.1c0.8,1.6,1.1,3.6,0.8,5.4c0,0.2,0.2,0.3,0.2,0.5c1.7,2.5,3.2,5.1,4.3,7.9
			c2.2,6.2,4.3,12.3,7.9,17.7c0.2,0.2,0.2,0.5,0.5,0.6c3.5,2.5,3,5.7,1.7,9.2c-0.5,1.6-0.9,3.2-1.3,4.7c-0.8,3,0.2,5.5,2.1,7.9
			c0.2,0.3,0.5,0.5,0.6,0.8c0.9,1.1,0.9,1.9-0.6,2.7c-4.1,1.7-5.4,5.5-6.8,9.2c-1.6,4.1-2.1,8.4-2.8,12.7c-0.5,3.5,0.2,6.6,0.5,10
			c0,0.5,0.2,0.9,0.5,1.6c2.1,1.3,4,2.7,5.9,4.1c0.5,0.3,1.1,0.9,1.7,1.6c1.4,0.6,2.7,1.3,4.1,1.7c0.3,0,0.5,0,0.8,0l0,0
			c0.6-0.2,1.4-0.3,2.2-0.3c0.2,0,0.3,0,0.5,0s0.3,0,0.6,0c1.6,0,3,0.5,4.1,1.1c0.5,0.2,1.1,0.5,1.6,0.8c-0.2-0.9-0.9-1.7-2.1-2.2
			c-1.3-0.5-0.9-1.1-0.2-1.7c3-2.4,4-5.9,4.3-9.5c0-0.2,0-0.3,0-0.6c0-0.5-0.2-1.1,0.6-1.3c0.6-0.2,0.8,0.3,1.1,0.8
			c1.3,1.9,2.1,3.8,3.5,5.7c1.9,2.5,4.4,3.5,7.3,4.1c2.2,0.5,4.4,0.8,6.6,0c0.3-0.2,0.6,0,0.8,0.2c0.3,0.5,0,0.6-0.3,0.9
			c0,0,0,0-0.2,0.2c1.9-0.8,3.6-1.7,5.2-2.8c-0.3-0.6,0-1.1,0.8-1.9c2.8-2.7,4-6,4-9.8c0-6.5,0-13-2.2-19.3
			C121.6,149.6,121.9,148.6,121.9,147.8z M82.9,87.6c-2.5,1.1-5.4,1.4-8.1,1.7c-0.5,0-1.1,0.2-1.1-0.6c0-0.6,0.5-0.8,0.9-0.9
			c0.2,0,0.3,0,0.6-0.2c4-1.1,4.6-2.2,3.5-6.3c-0.6-2.4-1.3-4.9-1.3-7.4c0-0.5,0.2-0.9,0.2-1.4c0.2-0.3,0.3-0.6,0.8-0.6
			c0.5,0,0.5,0.5,0.5,0.6c0.2,0.6,0.3,1.3,0.6,2.1c0.8,3.2,2.1,6,4.1,8.5c0.5,0.6,0.9,1.3,0.9,2.1C84.6,86.6,83.8,87.2,82.9,87.6z
			 M108.5,145c-3.6,0.8-7,2.4-9.8,4.9c-0.8,0.8-1.3,1.7-1.7,2.7c-0.3,0.5-0.6,0.8-1.1,0.6c-0.6-0.2-0.6-0.6-0.5-1.1
			c0.2-1.4-0.5-2.4-1.6-3.2c-1.3-0.9-0.6-1.4,0.3-1.9c2.7-1.3,5.5-2.4,8.5-2.8c1.9-0.3,3.8-1.1,6-0.8c0.5,0.2,1.9-0.6,2.1,0.5
			C110.7,144.8,109.3,144.7,108.5,145z M108.5,87.9c-1.6-0.8-2.1-2.4-2.2-4.1c-0.3-1.4,0.9-2.2,1.3-3.5c0.6-2.7,0.5-5.4,0.3-8.1
			c0-0.8-0.3-1.9,0.8-2.1c1.1-0.2,1.1,1.1,1.3,1.7c0.9,2.7,1.1,5.7,2.4,8.2c0.5,0.8,0.9,1.4,1.6,1.9c1.7,1.3,3.2,2.7,3.6,4.9
			c0.2,0.8,0.5,1.4,0.9,2.1c0.3,0.5,0.9,0.8,0.6,1.4c-0.3,0.6-1.1,0.3-1.7,0.3C114,90.6,111.3,89.1,108.5,87.9z"/>
		<path class="st2" d="M80.3,142.5c-0.2-0.2-0.5-0.5-0.6-0.8c-1.7-2.4-2.8-4.9-2.1-7.9c0.5-1.6,0.8-3.2,1.3-4.7
			c1.3-3.5,1.7-6.6-1.7-9.2c-0.2-0.2-0.3-0.5-0.5-0.6c-3.6-5.4-5.7-11.6-7.9-17.7c-0.9-2.8-2.5-5.4-4.3-7.9c0.2,0.6,0.2,1.1,0.3,1.7
			c1.1,2.2,1.1,4.9,0.2,7.1c0.8,3.3,1.7,6.6,2.8,10c1.6,4.9,2.1,9.8,1.3,14.9c-0.6,4.3-1.9,8.4-1.6,12.8c0.2,1.7-0.3,3.5-0.6,5.2
			c-0.6,3.5-1.4,7-1.9,10.3c-0.6,4.6-1.3,9.2-1.7,13.8c-0.2,0.8-0.3,1.7-0.5,2.5c0.8,0.5,1.6,1.1,2.2,2.1c0.2,0.2,0.3,0.3,0.3,0.5
			c1.7,0.6,3.3,1.7,4.4,3.3c0.3,0.2,0.6,0.3,0.9,0.5c-0.2-0.6-0.3-1.1-0.5-1.6c-0.5-3.3-1.1-6.5-0.5-10c0.6-4.3,1.1-8.5,2.8-12.7
			c1.4-3.6,2.8-7.6,6.8-9.2C81.3,144.4,81.3,143.6,80.3,142.5z"/>
		<path class="st3" d="M124.6,154.2c-0.9-5.5-2.7-11.1-2.4-16.8c0.2-2.4-0.5-4.7-1.1-7.1c-1.4-4.9-1.1-9.8-0.2-14.6
			c0.9-4,2.2-7.9,3.3-11.9c-0.5-0.9-0.8-1.9-0.8-2.8c-0.3,0.9-0.6,1.7-0.8,2.7c-2.1,7.6-5.4,14.9-9.5,21.5c-0.8,1.1-0.5,2.2,0.5,3.2
			c1.3,1.4,2.5,2.7,3.6,4.1c1.7,1.9,2.7,4,2.1,6.8c-0.5,1.7-0.2,3.5,1.3,4.9c0.9,0.9,1.6,2.2,1.4,3.6c0,0.8-0.3,1.7,0,2.5
			c2.2,6.2,2.2,12.7,2.2,19.3c0,4-1.3,7.1-4,9.8c-0.8,0.6-1.1,1.3-0.8,1.9c3-2.1,5.5-4.7,7-8.4c0.2-0.6,0.5-1.1,0.8-1.6
			c-0.5-2.2-0.8-4.6-1.1-7C125.6,161.1,125.1,157.7,124.6,154.2z"/>
		<path class="st2" d="M70,59.4c4.1-0.5,8.1-1.9,11.7-4c1.7-0.9,3.5-2.1,4.9-3.8c0.2-0.2,0.2-0.3,0.3-0.5c-1.1,0-2.2,0-3.3-0.2
			c-0.5,0.6-1.1,1.1-1.9,1.6c-3.5,2.5-7.6,3.6-11.4,5.7c-0.9,0.5-1.9,0.8-2.8,0.8C68.3,59.7,69.3,59.6,70,59.4z"/>
		<path class="st3" d="M114.4,183.1c-0.2-0.3-0.6-0.3-0.8-0.2c-2.2,0.6-4.4,0.3-6.6,0c-2.8-0.6-5.5-1.4-7.3-4.1
			c-1.3-1.7-2.2-3.8-3.5-5.7c-0.3-0.5-0.5-0.9-1.1-0.8c-0.6,0.2-0.5,0.8-0.6,1.3c0,0.2,0,0.3,0,0.6c-0.3,3.6-1.3,7-4.3,9.5
			c-0.8,0.6-1.1,1.3,0.2,1.7c1.1,0.5,1.9,1.3,2.1,2.2c0.3,0.3,0.6,0.5,0.9,0.8c0.2-1.1,0.5-2.1,0.6-3.2c0.2-0.5,0.3-1.1,0.8-1.1
			c0.6-0.2,0.8,0.5,0.9,0.9c0.3,1.4,0.8,2.8,0.9,4.3c5.1-1.4,11.6-2.8,17.1-5.2c0,0,0,0,0.2-0.2
			C114.4,183.8,114.7,183.6,114.4,183.1z"/>
		<path class="st3" d="M106.3,83.8c-0.3-1.4,0.9-2.2,1.3-3.5c0.6-2.7,0.5-5.4,0.3-8.1c0-0.8-0.3-1.9,0.8-2.1
			c1.1-0.2,1.1,1.1,1.3,1.7c0.9,2.7,1.1,5.7,2.4,8.2c0.5,0.8,0.9,1.4,1.6,1.9c1.7,1.3,3.2,2.7,3.6,4.9c0.2,0.8,0.5,1.4,0.9,2.1
			c0.3,0.5,0.9,0.8,0.6,1.4c-0.3,0.6-1.1,0.3-1.7,0.3c-3.2-0.5-6-1.9-8.9-3C106.8,87.1,106.4,85.3,106.3,83.8z"/>
		<path class="st5" d="M84.6,85.5c0,1.1-0.8,1.7-1.7,2.2c-2.5,1.1-5.4,1.4-8.1,1.7c-0.5,0-1.1,0.2-1.1-0.6c0-0.6,0.5-0.8,0.9-0.9
			c0.2,0,0.3,0,0.6-0.2c4-1.1,4.6-2.2,3.5-6.3c-0.6-2.4-1.3-4.9-1.3-7.4c0-0.5,0.2-0.9,0.2-1.4c0.2-0.3,0.3-0.6,0.8-0.6
			c0.5,0,0.5,0.5,0.5,0.6c0.2,0.6,0.3,1.3,0.6,2.1c0.8,3.2,2.1,6,4.1,8.5C84.1,83.9,84.4,84.6,84.6,85.5z"/>
		<path class="st4" d="M108.5,143.4c0.5,0.2,1.9-0.6,2.1,0.5c0.2,0.9-1.3,0.8-2.1,0.9c-3.6,0.8-7,2.4-9.8,4.9
			c-0.8,0.8-1.3,1.7-1.7,2.7c-0.3,0.5-0.6,0.8-1.1,0.6c-0.6-0.2-0.6-0.6-0.5-1.1c0.2-1.4-0.5-2.4-1.6-3.2c-1.3-0.9-0.6-1.4,0.3-1.9
			c2.7-1.3,5.5-2.4,8.5-2.8C104.4,143.9,106.3,143.1,108.5,143.4z"/>
	</g>
</g>
<g id="Calque_6">
	<g>
		<path class="st0" d="M80.5,34.2c0.3,0.8,0.6,2.1,1.3,2.2c1.7,0.5,1.4,1.7,1.6,2.8c0.3,1.3,0.5,2.5,0.8,3.8c0.6,3.2,0.6,5.2-0.6,7
			c0.3,0,0.6,0,0.9,0c0.8-1.3,1.1-2.7,0.6-4.6c-0.5-2.1-0.6-4.3-0.9-6.5c-0.2-1.3-0.8-2.2-1.7-3.3c-2.1-2.4-2.4-5.4-2.7-8.4
			c0-0.3,0.2-0.6,0.3-0.9c0.6,0.3,0.8,1.1,1.6,0.6c0.6-0.3,0.6-1.1,0.6-1.7c0.2-4.6,0.5-9.2,3.3-13.1c2.7-4,9-5.7,13.4-3.6
			c4.3,1.3,7.8,5.9,7.9,10.3c0.2,2.4,0.5,4.9,0.6,7.3c0,0.8,0.5,1.3,1.3,0.9c2.1-0.9,1.4,0.5,1.3,1.4c-0.5,1.9-1.1,3.8-1.6,5.5
			c-0.2,0.5-0.2,0.9-0.5,1.3c-3,2.4-2.4,6-3,9.2c-0.3,1.7,0,3.5,0,5.2c0.5,0,0.8,0,1.3,0c-0.5-0.9-0.8-1.9-0.6-3.2
			c0.2-2.5,0.8-5.1,0.9-7.6c0.2-1.4,1.4-1.9,1.9-3c1.4-2.5,2.1-5.4,2.4-8.2c0.3-2.1-0.6-2.5-2.5-1.4c-0.3-2.7-0.5-5.4-0.8-8.1
			c-0.5-3.5-2.1-6.3-4.9-8.5c-1.9-1.4-4.3-1.9-6.5-2.7h-2.7C93.3,7,93.2,7.2,93,7.2c-6.6,1.1-9.3,4.3-10.9,10.6
			c-0.6,2.7-0.8,5.4-0.8,8.2c-1.7-0.6-2.4-0.5-2.5,1.3c-0.2,0.6,0,1.4,0.2,2.1C79.5,30.8,79.9,32.5,80.5,34.2z"/>
		<path class="st1" d="M93.2,34.9c0.5,0.3,0.9,0.5,1.4,0.6c0.6,0.2,1.4,0.3,1.3,1.3c-0.2,1.1-1.1,0.6-1.7,0.6
			c-3,0.2-4.7,1.9-4.7,4.9c0,2.7-0.5,5.4-1.9,7.8c0.8,0,1.6,0,2.4,0c4.9,0,9.8-0.5,14.9-0.5c-1.7-2.5-1.6-5.5-1.6-8.5
			c0-3,2.5-4.7,3.5-7.3c0.5-1.3,1.1,0.6,1.7,0.3c0.5-1.9,1.1-3.6,1.6-5.5c0.2-0.9,0.8-2.4-1.3-1.4c-0.8,0.3-1.1-0.2-1.3-0.9
			c-0.2-2.4-0.6-4.9-0.6-7.3c-0.2-4.6-3.6-9-7.9-10.3c-6.2-0.2-10,3.2-12,8.7c-1.3,3.6-1.9,7.3-0.5,11.2
			C87.8,31.7,90.5,33.3,93.2,34.9z"/>
		<path class="st2" d="M84.1,39c0.3,2.2,0.5,4.4,0.9,6.5c0.3,1.9,0,3.3-0.6,4.6c1.1,0,2.2,0,3.3,0c1.3-2.4,1.7-4.9,1.9-7.8
			c0-3.2,1.7-4.7,4.7-4.9c0.6,0,1.6,0.3,1.7-0.6c0.2-0.9-0.6-1.1-1.3-1.3c-0.5-0.2-0.9-0.3-1.4-0.6c-2.8-1.6-5.5-3-6.6-6.3
			c-1.4-3.8-0.8-7.6,0.5-11.2c2.1-5.5,5.7-8.9,12-8.7C95,6.5,88.7,8.3,85.9,12.2s-3.2,8.5-3.3,13.1c0,0.6,0.2,1.3-0.6,1.7
			c-0.8,0.5-1.1-0.5-1.6-0.6c-0.2,0.3-0.5,0.6-0.3,0.9c0.3,3,0.8,6.2,2.7,8.4C83.3,36.8,84,37.7,84.1,39z"/>
		<path class="st8" d="M105,49.6c0-1.7-0.3-3.5,0-5.2c0.6-3.2-0.2-6.8,3-9.2c0.3-0.2,0.3-0.8,0.5-1.3c-0.6,0.3-1.3-1.6-1.7-0.3
			c-0.9,2.5-3.5,4.3-3.5,7.3c0,3-0.2,5.9,1.6,8.5C104.9,49.6,105,49.6,105,49.6z"/>
	</g>
</g>
</svg>
